{
    "last_tab": "5",
    "framework_confirmation": "0",
    "logo": {
        "url": "http://azexo.com/foodpicky/wp-content/uploads/2016/09/logo.png",
        "id": "87"
    },
    "brand-color": "#e8500e",
    "accent-1-color": "#d8bea5",
    "accent-2-color": "#4caf50",
    "single_post_template": "post",
    "default_post_template": "archive-post",
    "show_sidebar": "left",
    "favicon": {
        "url": "",
        "id": ""
    },
    "custom-css": "#header{\r\nmargin: 0 auto;\r\n}",
    "custom-js": "jQuery(document).ready(function(){\r\n \r\n jQuery('.profile-tabs .list-filter .filter-term').horizontal_menu_more(4);\r\n \r\n});",
    "custom_dashboard_pages": ["211"],
    "single_product_template": "single_product",
    "default_product_template": "shop_product",
    "product_show_sidebar": "left",
    "single_azl_profile_template": "single_profile",
    "default_azl_profile_template": "list_profile",
    "azl_profile_show_sidebar": "right",
    "azl_profile_additional_sidebar": ["single"],
    "azl_profile_before_list": ["result_count", "ordering"],
    "azl_profile_custom_sorting": ["menu_order", "date"],
    "azl_profile_custom_sorting_numeric_meta_keys": [""],
    "skin": "foodpicky",
    "header_sidebar_fullwidth": "1",
    "header_parts_fullwidth": "0",
    "middle_sidebar_fullwidth": "1",
    "content_fullwidth": "0",
    "footer_sidebar_fullwidth": "1",
    "show_page_title": "0",
    "show_breadcrumbs": "0",
    "header": ["logo", "mobile_menu_button", "my-account", "primary_menu", "mobile_menu"],
    "author_bio": "0",
    "post_navigation": "after",
    "post_navigation_full": "0",
    "post_navigation_previous": "Preview post",
    "post_navigation_next": "Next post",
    "related_posts": "1",
    "comments": "1",
    "default_title": "Latest posts",
    "post_page_title": "",
    "strip_excerpt": "1",
    "excerpt_length": "15",
    "comment_excerpt_length": "15",
    "author_avatar_size": "50",
    "avatar_size": "50",
    "related_posts_carousel_margin": "0",
    "before_list_place": "before_container",
    "templates": ["Archive post", "Product owner", "Profile products", "Single profile middle", "azl_profile", "Profile item"],
    "meta_fields": ["Address", "minimum_order_amount", "Delivery_time"],
    "post_show_thumbnail": "1",
    "post_image_thumbnail": "0",
    "post_gallery_slider_thumbnails": "0",
    "post_gallery_slider_thumbnails_vertical": "0",
    "post_zoom": "0",
    "post_lazy": "0",
    "post_show_carousel": "0",
    "post_thumbnail_size": "820x380",
    "post_show_title": "1",
    "post_show_content": "content",
    "post_excerpt_length": "15",
    "post_excerpt_words_trim": "1",
    "post_more_inside_content": "0",
    "post_additions": ["post_tags", "post_like", "post_date", "post_comments_count", "post_category"],
    "masonry_post_show_thumbnail": "1",
    "masonry_post_image_thumbnail": "1",
    "masonry_post_gallery_slider_thumbnails": "0",
    "masonry_post_gallery_slider_thumbnails_vertical": "0",
    "masonry_post_zoom": "0",
    "masonry_post_lazy": "1",
    "masonry_post_show_carousel": "0",
    "masonry_post_thumbnail_size": "640x480",
    "masonry_post_show_title": "1",
    "masonry_post_show_content": "hidden",
    "masonry_post_excerpt_length": "15",
    "masonry_post_excerpt_words_trim": "1",
    "masonry_post_more_inside_content": "1",
    "masonry_post_thumbnail": ["post_category"],
    "masonry_post_meta": ["post_date"],
    "masonry_post_footer": ["post_comments_count", "post_like", "post_read_more"],
    "navigation_post_show_thumbnail": "1",
    "navigation_post_image_thumbnail": "0",
    "navigation_post_gallery_slider_thumbnails": "0",
    "navigation_post_gallery_slider_thumbnails_vertical": "0",
    "navigation_post_zoom": "0",
    "navigation_post_lazy": "0",
    "navigation_post_show_carousel": "0",
    "navigation_post_thumbnail_size": "large",
    "navigation_post_show_title": "1",
    "navigation_post_show_content": "content",
    "navigation_post_excerpt_length": "15",
    "navigation_post_excerpt_words_trim": "1",
    "navigation_post_more_inside_content": "1",
    "related_post_show_thumbnail": "1",
    "related_post_image_thumbnail": "1",
    "related_post_gallery_slider_thumbnails": "0",
    "related_post_gallery_slider_thumbnails_vertical": "0",
    "related_post_zoom": "0",
    "related_post_lazy": "0",
    "related_post_show_carousel": "0",
    "related_post_thumbnail_size": "250x250",
    "related_post_show_title": "1",
    "related_post_show_content": "content",
    "related_post_excerpt_length": "15",
    "related_post_excerpt_words_trim": "1",
    "related_post_more_inside_content": "1",
    "related_post_footer": ["post_date", "post_category"],
    "archive-post_show_thumbnail": "1",
    "archive-post_image_thumbnail": "0",
    "archive-post_gallery_slider_thumbnails": "0",
    "archive-post_gallery_slider_thumbnails_vertical": "0",
    "archive-post_zoom": "0",
    "archive-post_lazy": "0",
    "archive-post_show_carousel": "0",
    "archive-post_thumbnail_size": "750x215",
    "archive-post_show_title": "1",
    "archive-post_show_content": "excerpt",
    "archive-post_excerpt_length": "30",
    "archive-post_excerpt_words_trim": "1",
    "archive-post_more_inside_content": "0",
    "archive-post_additions": ["post_like", "post_date", "post_comments_count", "post_read_more"],
    "product-owner_show_thumbnail": "0",
    "product-owner_image_thumbnail": "0",
    "product-owner_gallery_slider_thumbnails": "0",
    "product-owner_gallery_slider_thumbnails_vertical": "0",
    "product-owner_zoom": "0",
    "product-owner_lazy": "0",
    "product-owner_show_carousel": "0",
    "product-owner_thumbnail_size": "large",
    "product-owner_show_title": "0",
    "product-owner_show_content": "hidden",
    "product-owner_excerpt_length": "15",
    "product-owner_excerpt_words_trim": "1",
    "product-owner_more_inside_content": "1",
    "product-owner_extra": ["post_author_avatar"],
    "product-owner_meta": ["Phone", "Email", "Website"],
    "profile-products_show_thumbnail": "1",
    "profile-products_image_thumbnail": "1",
    "profile-products_gallery_slider_thumbnails": "0",
    "profile-products_gallery_slider_thumbnails_vertical": "0",
    "profile-products_zoom": "0",
    "profile-products_lazy": "0",
    "profile-products_show_carousel": "0",
    "profile-products_thumbnail_size": "100x100",
    "profile-products_show_title": "1",
    "profile-products_show_content": "excerpt",
    "profile-products_excerpt_length": "6",
    "profile-products_excerpt_words_trim": "1",
    "profile-products_more_inside_content": "1",
    "profile-products_hover": ["azl_edit_link", "azl_delete_link"],
    "profile-products_additions": ["loop_price", "single_add_to_cart"],
    "single-profile-middle_show_thumbnail": "1",
    "single-profile-middle_image_thumbnail": "1",
    "single-profile-middle_gallery_slider_thumbnails": "0",
    "single-profile-middle_gallery_slider_thumbnails_vertical": "0",
    "single-profile-middle_zoom": "0",
    "single-profile-middle_lazy": "0",
    "single-profile-middle_show_carousel": "0",
    "single-profile-middle_thumbnail_size": "240x135",
    "single-profile-middle_show_title": "1",
    "single-profile-middle_show_content": "excerpt",
    "single-profile-middle_excerpt_length": "6",
    "single-profile-middle_excerpt_words_trim": "1",
    "single-profile-middle_more_inside_content": "1",
    "single-profile-middle_extra": ["profile-open.php"],
    "single-profile-middle_footer": ["minimum_order_amount", "Delivery_time", "profile_rating", "profile-reviews-count.php"],
    "azl_profile_show_thumbnail": "1",
    "azl_profile_image_thumbnail": "0",
    "azl_profile_gallery_slider_thumbnails": "0",
    "azl_profile_gallery_slider_thumbnails_vertical": "0",
    "azl_profile_zoom": "0",
    "azl_profile_lazy": "0",
    "azl_profile_show_carousel": "1",
    "azl_profile_thumbnail_size": "600x600",
    "azl_profile_show_title": "1",
    "azl_profile_show_content": "content",
    "azl_profile_excerpt_length": "15",
    "azl_profile_excerpt_words_trim": "1",
    "azl_profile_more_inside_content": "1",
    "profile-item_show_thumbnail": "1",
    "profile-item_image_thumbnail": "1",
    "profile-item_gallery_slider_thumbnails": "0",
    "profile-item_gallery_slider_thumbnails_vertical": "0",
    "profile-item_zoom": "0",
    "profile-item_lazy": "0",
    "profile-item_show_carousel": "0",
    "profile-item_thumbnail_size": "108x108",
    "profile-item_show_title": "1",
    "profile-item_show_content": "excerpt",
    "profile-item_excerpt_length": "8",
    "profile-item_excerpt_words_trim": "1",
    "profile-item_more_inside_content": "1",
    "profile-item_footer": ["Phone", "Address", "profile_rating", "profile-reviews-count.php"],
    "google_map_post_show_thumbnail": "1",
    "google_map_post_image_thumbnail": "0",
    "google_map_post_gallery_slider_thumbnails": "0",
    "google_map_post_gallery_slider_thumbnails_vertical": "0",
    "google_map_post_zoom": "0",
    "google_map_post_lazy": "0",
    "google_map_post_show_carousel": "0",
    "google_map_post_thumbnail_size": "large",
    "google_map_post_show_title": "1",
    "google_map_post_show_content": "content",
    "google_map_post_excerpt_length": "15",
    "google_map_post_excerpt_words_trim": "1",
    "google_map_post_more_inside_content": "1",
    "single_profile_show_thumbnail": "0",
    "single_profile_image_thumbnail": "0",
    "single_profile_gallery_slider_thumbnails": "0",
    "single_profile_gallery_slider_thumbnails_vertical": "0",
    "single_profile_zoom": "0",
    "single_profile_lazy": "0",
    "single_profile_show_carousel": "0",
    "single_profile_thumbnail_size": "large",
    "single_profile_show_title": "0",
    "single_profile_show_content": "hidden",
    "single_profile_excerpt_length": "15",
    "single_profile_excerpt_words_trim": "1",
    "single_profile_more_inside_content": "1",
    "single_profile_next": ["25"],
    "list_profile_show_thumbnail": "1",
    "list_profile_image_thumbnail": "1",
    "list_profile_gallery_slider_thumbnails": "0",
    "list_profile_gallery_slider_thumbnails_vertical": "0",
    "list_profile_zoom": "0",
    "list_profile_lazy": "0",
    "list_profile_show_carousel": "0",
    "list_profile_thumbnail_size": "108x108",
    "list_profile_show_title": "1",
    "list_profile_show_content": "excerpt",
    "list_profile_excerpt_length": "6",
    "list_profile_excerpt_words_trim": "1",
    "list_profile_more_inside_content": "1",
    "list_profile_footer": ["minimum_order_amount", "Delivery_time"],
    "list_profile_additions": ["profile_rating", "profile-reviews-count.php", "post_read_more"],
    "single_product_show_thumbnail": "1",
    "single_product_image_thumbnail": "0",
    "single_product_gallery_slider_thumbnails": "1",
    "single_product_gallery_slider_thumbnails_vertical": "0",
    "single_product_zoom": "0",
    "single_product_lazy": "0",
    "single_product_show_carousel": "0",
    "single_product_thumbnail_size": "300x200",
    "single_product_show_title": "1",
    "single_product_show_content": "excerpt",
    "single_product_excerpt_length": "20",
    "single_product_excerpt_words_trim": "1",
    "single_product_more_inside_content": "0",
    "single_product_footer": ["single_price", "single_add_to_cart"],
    "single_product_next": ["post_content", "single_reviews"],
    "shop_product_show_thumbnail": "1",
    "shop_product_image_thumbnail": "1",
    "shop_product_gallery_slider_thumbnails": "0",
    "shop_product_gallery_slider_thumbnails_vertical": "0",
    "shop_product_zoom": "0",
    "shop_product_lazy": "1",
    "shop_product_show_carousel": "0",
    "shop_product_thumbnail_size": "360x215",
    "shop_product_show_title": "1",
    "shop_product_show_content": "excerpt",
    "shop_product_excerpt_length": "5",
    "shop_product_excerpt_words_trim": "1",
    "shop_product_more_inside_content": "0",
    "shop_product_hover": ["single_rating"],
    "shop_product_footer": ["loop_price", "product-add-to-cart.php"],
    "shop_product_additions": ["post_author_avatar", "Address", "post_like"],
    "detailed_shop_product_show_thumbnail": "1",
    "detailed_shop_product_image_thumbnail": "0",
    "detailed_shop_product_gallery_slider_thumbnails": "0",
    "detailed_shop_product_gallery_slider_thumbnails_vertical": "0",
    "detailed_shop_product_zoom": "0",
    "detailed_shop_product_lazy": "0",
    "detailed_shop_product_show_carousel": "0",
    "detailed_shop_product_thumbnail_size": "370x220",
    "detailed_shop_product_show_title": "1",
    "detailed_shop_product_show_content": "hidden",
    "detailed_shop_product_excerpt_length": "30",
    "detailed_shop_product_excerpt_words_trim": "1",
    "detailed_shop_product_more_inside_content": "0",
    "detailed_shop_product_extra": ["azl_actions"],
    "detailed_shop_product_header": ["loop_price"],
    "detailed_shop_product_footer": ["post_author_avatar", "Address", "taxonomy_product_cat", "Phone", "Website"],
    "related_product_show_thumbnail": "1",
    "related_product_image_thumbnail": "1",
    "related_product_gallery_slider_thumbnails": "0",
    "related_product_gallery_slider_thumbnails_vertical": "0",
    "related_product_zoom": "0",
    "related_product_lazy": "0",
    "related_product_show_carousel": "1",
    "related_product_thumbnail_size": "270x360",
    "related_product_show_title": "1",
    "related_product_show_content": "hidden",
    "related_product_excerpt_length": "15",
    "related_product_excerpt_words_trim": "1",
    "related_product_more_inside_content": "0",
    "related_product_footer": ["loop_rating", "loop_price"],
    "upsells_product_show_thumbnail": "1",
    "upsells_product_image_thumbnail": "1",
    "upsells_product_gallery_slider_thumbnails": "0",
    "upsells_product_gallery_slider_thumbnails_vertical": "0",
    "upsells_product_zoom": "0",
    "upsells_product_lazy": "0",
    "upsells_product_show_carousel": "0",
    "upsells_product_thumbnail_size": "280x150",
    "upsells_product_show_title": "1",
    "upsells_product_show_content": "excerpt",
    "upsells_product_excerpt_length": "15",
    "upsells_product_excerpt_words_trim": "1",
    "upsells_product_more_inside_content": "0",
    "upsells_product_footer": ["loop_add_to_cart"],
    "loop_sold_by_prefix": "",
    "post_title_prefix": "",
    "post_summary_prefix": "",
    "post_content_prefix": "",
    "post_thumbnail_prefix": "",
    "post_video_prefix": "",
    "post_gallery_prefix": "",
    "post_sticky_prefix": "",
    "post_date_prefix": "",
    "post_splitted_date_prefix": "",
    "post_author_prefix": "Posted by: ",
    "post_author_avatar_prefix": "Agent",
    "post_category_prefix": "In: ",
    "post_tags_prefix": "Tags: ",
    "post_like_prefix": "",
    "post_last_comment_prefix": "",
    "post_last_comment_author_prefix": "",
    "post_last_comment_author_avatar_prefix": "",
    "post_last_comment_date_prefix": "",
    "post_comments_count_prefix": "",
    "post_read_more_prefix": "",
    "post_share_prefix": "SHARE",
    "post_comments_prefix": "",
    "product-vendor_prefix": "",
    "product-share-for-coupon_prefix": "",
    "product-file_prefix": "",
    "product-gmap-location_prefix": "",
    "product-printable-coupon_prefix": "",
    "product-coupon_prefix": "",
    "product-price-drop-alert_prefix": "",
    "profile-working-hours_prefix": "",
    "product-time-left_prefix": "",
    "product-date-time_prefix": "",
    "product-working-hours_prefix": "",
    "profile-add-review_prefix": "",
    "profile-reviews-count_prefix": "",
    "product-open-table_prefix": "",
    "profile-gmap-location_prefix": "",
    "product-add-to-cart_prefix": "",
    "profile-open_prefix": "",
    "product-add-review_prefix": "",
    "taxonomy_category_image": {
        "url": "",
        "id": ""
    },
    "taxonomy_category_prefix": "",
    "taxonomy_category_suffix": "",
    "taxonomy_post_tag_image": {
        "url": "",
        "id": ""
    },
    "taxonomy_post_tag_prefix": "",
    "taxonomy_post_tag_suffix": "",
    "taxonomy_nav_menu_image": {
        "url": "",
        "id": ""
    },
    "taxonomy_nav_menu_prefix": "",
    "taxonomy_nav_menu_suffix": "",
    "taxonomy_link_category_image": {
        "url": "",
        "id": ""
    },
    "taxonomy_link_category_prefix": "",
    "taxonomy_link_category_suffix": "",
    "taxonomy_post_format_image": {
        "url": "",
        "id": ""
    },
    "taxonomy_post_format_prefix": "",
    "taxonomy_post_format_suffix": "",
    "taxonomy_product_type_image": {
        "url": "",
        "id": ""
    },
    "taxonomy_product_type_prefix": "",
    "taxonomy_product_type_suffix": "",
    "taxonomy_product_cat_image": {
        "url": "http://wp/wp-content/uploads/2016/06/1466014839_file-directory.svg",
        "id": "2197"
    },
    "taxonomy_product_cat_prefix": "Type:",
    "taxonomy_product_cat_suffix": "",
    "taxonomy_product_tag_image": {
        "url": "",
        "id": ""
    },
    "taxonomy_product_tag_prefix": "",
    "taxonomy_product_tag_suffix": "",
    "taxonomy_product_shipping_class_image": {
        "url": "",
        "id": ""
    },
    "taxonomy_product_shipping_class_prefix": "",
    "taxonomy_product_shipping_class_suffix": "",
    "taxonomy_pa_size_image": {
        "url": "",
        "id": ""
    },
    "taxonomy_pa_size_prefix": "",
    "taxonomy_pa_size_suffix": "",
    "taxonomy_delivery-type_image": {
        "url": "",
        "id": ""
    },
    "taxonomy_delivery-type_prefix": "",
    "taxonomy_delivery-type_suffix": "",
    "taxonomy_widget_type_image": {
        "url": "",
        "id": ""
    },
    "taxonomy_widget_type_prefix": "",
    "taxonomy_widget_type_suffix": "",
    "Address_image": {
        "url": "",
        "id": ""
    },
    "Address_prefix": "",
    "Address_suffix": "",
    "minimum_order_amount_image": {
        "url": "",
        "id": ""
    },
    "minimum_order_amount_prefix": "Min $",
    "minimum_order_amount_suffix": "",
    "Delivery_time_image": {
        "url": "",
        "id": ""
    },
    "Delivery_time_prefix": "",
    "Delivery_time_suffix": "min",
    "azl_actions_prefix": "",
    "azl_edit_link_prefix": "",
    "azl_delete_link_prefix": "",
    "azl_claim_link_prefix": "",
    "azl_abuse_link_prefix": "",
    "azl_favorite_link_prefix": "",
    "profile_rating_prefix": "",
    "profile_review_count_prefix": "",
    "profile_last_review_rating_prefix": "",
    "profile_link_prefix": "",
    "profile_products_count_prefix": "",
    "purchased_prefix": "",
    "discount_prefix": "",
    "sale_time_left_prefix": "",
    "availability_prefix": "",
    "last_review_rating_prefix": "",
    "loop_sale_flash_prefix": "",
    "loop_rating_prefix": "",
    "loop_price_prefix": "",
    "loop_add_to_cart_prefix": "",
    "product_thumbnail_prefix": "",
    "product_gallery_prefix": "",
    "single_sale_flash_prefix": "",
    "single_add_to_cart_prefix": "",
    "single_rating_prefix": "",
    "single_price_prefix": "",
    "single_meta_prefix": "",
    "single_sharing_prefix": "",
    "single_data_tabs_prefix": "",
    "single_related_products_prefix": "",
    "single_upsell_display_prefix": "",
    "single_description_prefix": "",
    "single_reviews_prefix": "",
    "single_additional_information_prefix": "",
    "17_prefix": "",
    "11_prefix": "",
    "13_prefix": "",
    "19_prefix": "",
    "21_prefix": "",
    "23_prefix": "",
    "36_prefix": "",
    "27_prefix": "",
    "15_prefix": "",
    "25_prefix": "",
    "29_prefix": "",
    "profile_label": "Profile",
    "profiles_label": "Profiles",
    "redirect_product_to_profile": "0",
    "shop_title": "Food",
    "product_label": "Food",
    "products_label": "Food",
    "review_form_placeholders": "1",
    "custom_sorting": ["popularity", "rating", "date", "price", "price-desc"],
    "custom_sorting_numeric_meta_keys": [""],
    "shop_modes": "0",
    "show_data_tabs": "0",
    "show_related_products": "0",
    "show_upsells_products": "0",
    "upsells_products_carousel_margin": "30",
    "related_products_carousel_margin": "30",
    "show_ratings_summary": "0",
    "review_marks": [""],
    "review_likes": "0",
    "product_additional_sidebar": "",
    "post_thumbnail": "",
    "post_hover": "",
    "post_extra": "",
    "post_meta": "",
    "post_header": "",
    "post_footer": "",
    "post_data": "",
    "post_next": "",
    "masonry_post_hover": "",
    "masonry_post_extra": "",
    "masonry_post_header": "",
    "masonry_post_data": "",
    "masonry_post_additions": "",
    "masonry_post_next": "",
    "navigation_post_thumbnail": "",
    "navigation_post_hover": "",
    "navigation_post_extra": "",
    "navigation_post_meta": "",
    "navigation_post_header": "",
    "navigation_post_footer": "",
    "navigation_post_data": "",
    "navigation_post_additions": "",
    "navigation_post_next": "",
    "related_post_thumbnail": "",
    "related_post_hover": "",
    "related_post_extra": "",
    "related_post_meta": "",
    "related_post_header": "",
    "related_post_data": "",
    "related_post_additions": "",
    "related_post_next": "",
    "archive-post_thumbnail": "",
    "archive-post_hover": "",
    "archive-post_extra": "",
    "archive-post_meta": "",
    "archive-post_header": "",
    "archive-post_footer": "",
    "archive-post_data": "",
    "archive-post_next": "",
    "product-owner_thumbnail": "",
    "product-owner_hover": "",
    "product-owner_header": "",
    "product-owner_footer": "",
    "product-owner_data": "",
    "product-owner_additions": "",
    "product-owner_next": "",
    "profile-products_thumbnail": "",
    "profile-products_extra": "",
    "profile-products_meta": "",
    "profile-products_header": "",
    "profile-products_footer": "",
    "profile-products_data": "",
    "profile-products_next": "",
    "single-profile-middle_thumbnail": "",
    "single-profile-middle_hover": "",
    "single-profile-middle_meta": "",
    "single-profile-middle_header": "",
    "single-profile-middle_data": "",
    "single-profile-middle_additions": "",
    "single-profile-middle_next": "",
    "azl_profile_thumbnail": "",
    "azl_profile_hover": "",
    "azl_profile_extra": "",
    "azl_profile_meta": "",
    "azl_profile_header": "",
    "azl_profile_footer": "",
    "azl_profile_data": "",
    "azl_profile_additions": "",
    "azl_profile_next": "",
    "profile-item_thumbnail": "",
    "profile-item_hover": "",
    "profile-item_extra": "",
    "profile-item_meta": "",
    "profile-item_header": "",
    "profile-item_data": "",
    "profile-item_additions": "",
    "profile-item_next": "",
    "google_map_post_thumbnail": "",
    "google_map_post_hover": "",
    "google_map_post_extra": "",
    "google_map_post_meta": "",
    "google_map_post_header": "",
    "google_map_post_footer": "",
    "google_map_post_data": "",
    "google_map_post_additions": "",
    "google_map_post_next": "",
    "single_profile_thumbnail": "",
    "single_profile_hover": "",
    "single_profile_extra": "",
    "single_profile_meta": "",
    "single_profile_header": "",
    "single_profile_footer": "",
    "single_profile_data": "",
    "single_profile_additions": "",
    "list_profile_thumbnail": "",
    "list_profile_hover": "",
    "list_profile_extra": "",
    "list_profile_meta": "",
    "list_profile_header": "",
    "list_profile_data": "",
    "list_profile_next": "",
    "single_product_thumbnail": "",
    "single_product_hover": "",
    "single_product_extra": "",
    "single_product_meta": "",
    "single_product_header": "",
    "single_product_data": "",
    "single_product_additions": "",
    "shop_product_thumbnail": "",
    "shop_product_extra": "",
    "shop_product_meta": "",
    "shop_product_header": "",
    "shop_product_data": "",
    "shop_product_next": "",
    "detailed_shop_product_thumbnail": "",
    "detailed_shop_product_hover": "",
    "detailed_shop_product_meta": "",
    "detailed_shop_product_data": "",
    "detailed_shop_product_additions": "",
    "detailed_shop_product_next": "",
    "related_product_thumbnail": "",
    "related_product_hover": "",
    "related_product_extra": "",
    "related_product_meta": "",
    "related_product_header": "",
    "related_product_data": "",
    "related_product_additions": "",
    "related_product_next": "",
    "upsells_product_thumbnail": "",
    "upsells_product_hover": "",
    "upsells_product_extra": "",
    "upsells_product_meta": "",
    "upsells_product_header": "",
    "upsells_product_data": "",
    "upsells_product_additions": "",
    "upsells_product_next": "",
    "import-export": "",
    "redux-backup": 1
}